{
  "components": [
    {
      "data": {
        "contents_checksum": "1ed65c975b0bbb4c609042a8715ce174b0bc859b2e3a3e31ccfe2179af67c804", 
        "source": "", 
        "type": "tar"
      }, 
      "dependencies": [
        "core", 
        "gsutil"
      ], 
      "details": {
        "description": "Provides the gsutil tool for interacting with Google Cloud Storage.", 
        "display_name": "Cloud Storage Command Line Tool (Platform Specific)"
      }, 
      "id": "gsutil-nix", 
      "is_configuration": false, 
      "is_hidden": true, 
      "is_required": false, 
      "platform": {
        "operating_systems": [
          "CYGWIN", 
          "LINUX", 
          "MACOSX", 
          "MSYS"
        ]
      }, 
      "version": {
        "build_number": 20180924183125, 
        "version_string": "4.34"
      }
    }
  ], 
  "revision": 20181019151017, 
  "schema_version": {
    "no_update": false, 
    "url": "https://dl.google.com/dl/cloudsdk/channels/rapid/google-cloud-sdk.tar.gz", 
    "version": 3
  }, 
  "version": "222.0.0"
}